07_AXI4_Stream_FIFO/tests/axis_waves.vcd
$date
	Mon Jun 30 09:22:14 2025
$end
$version
	Icarus Verilog
$end
$timescale
	1ps
$end
$scope module fifo_test_top $end
$scope module counter_inst $end
$var wire 1 ! clk $end
$var wire 32 " m_axis_tdata [31:0] $end
$var wire 1 # m_axis_tlast $end
$var wire 1 $ rst_n $end
$var wire 1 % start $end
$var wire 1 & m_axis_tvalid $end
$var wire 1 ' m_axis_tready $end
$var reg 2 ( current_state [1:0] $end
$var reg 32 ) current_tdata [31:0] $end
$var reg 32 * data_counter [31:0] $end
$var reg 1 + done $end
$var reg 3 , word_count [2:0] $end
$upscope $end
$upscope $end
$scope module fifo_test_top $end
$scope module fifo_inst $end
$var wire 1 ! clk $end
$var wire 1 - m_axis_tready $end
$var wire 1 $ rst_n $end
$var wire 32 . s_axis_tdata [31:0] $end
$var wire 1 # s_axis_tlast $end
$var wire 1 & s_axis_tvalid $end
$var wire 1 ' s_axis_tready $end
$var wire 1 / m_axis_tvalid $end
$var wire 1 0 m_axis_tlast $end
$var wire 32 1 m_axis_tdata [31:0] $end
$var wire 1 2 full $end
$var wire 1 3 empty $end
$var wire 5 4 count [4:0] $end
$var reg 5 5 rd_ptr [4:0] $end
$var reg 5 6 wr_ptr [4:0] $end
$upscope $end
$upscope $end
$scope module fifo_test_top $end
$var wire 1 ! clk $end
$var wire 1 - m_axis_tready $end
$var wire 1 $ rst_n $end
$var wire 1 % start_counter $end
$var wire 1 / m_axis_tvalid $end
$var wire 1 0 m_axis_tlast $end
$var wire 32 7 m_axis_tdata [31:0] $end
$var wire 1 2 fifo_full $end
$var wire 1 3 fifo_empty $end
$var wire 1 & counter_tvalid $end
$var wire 1 ' counter_tready $end
$var wire 1 # counter_tlast $end
$var wire 32 8 counter_tdata [31:0] $end
$var wire 1 + counter_done $end
$scope module counter_inst $end
$upscope $end
$scope module fifo_inst $end
$upscope $end
$upscope $end
$enddefinitions $end
#0
$dumpvars
b0 8
b0 7
b0 6
b0 5
b0 4
13
02
b0 1
00
0/
b0 .
1-
b0 ,
0+
b0 *
b0 )
b0 (
1'
0&
0%
0$
0#
b0 "
1!
$end
#5000
0!
#10000
1!
#15000
0!
#20000
1!
#25000
0!
#30000
1!
#35000
0!
#40000
1!
#45000
0!
#50000
1!
#55000
0!
#60000
1!
#65000
0!
#70000
1!
#75000
0!
#80000
1!
#85000
0!
#90000
1$
1!
#95000
0!
#100000
1%
1!
#105000
0!
#110000
b1 "
b1 .
b1 8
b1 )
b1 *
1&
b1 (
1!
#115000
0!
#120000
b1 1
b1 7
b10 "
b10 .
b10 8
b10 )
b10 *
b1 ,
1/
03
b1 4
b1 6
1!
#125000
0!
#130000
b10 1
b10 7
b1 5
b1 4
b10 6
b11 "
b11 .
b11 8
b11 )
b11 *
b10 ,
1!
#135000
0!
#140000
b11 1
b11 7
1#
b100 "
b100 .
b100 8
b100 )
b100 *
b11 ,
b11 6
1/
03
b1 4
b10 5
1!
#145000
0!
#150000
b100 1
b100 7
10
0#
b11 5
b1 4
b100 6
0&
b10 (
b100 ,
1!
#155000
0!
#160000
0%
b0 1
b0 7
00
1+
0/
13
b0 4
b100 5
1!
#165000
0!
#170000
b0 (
1!
#170001
0+
b0 "
b0 .
b0 8
b0 )
b0 *
b0 ,
b0 6
0/
13
b0 4
b0 5
0$
#175001
0!
#180001
1!
#185001
0!
#190001
1!
#195001
0!
#200001
1!
#205001
0!
#210001
1!
#215001
0!
#220001
1!
#225001
0!
#230001
1!
#235001
0!
#240001
1!
#245001
0!
#250001
1!
#255001
0!
#260001
1!
#265001
0!
#270001
1$
1!
#275001
0!
#280001
1%
1!
#285001
0!
#290001
b1 "
b1 .
b1 8
b1 )
b1 *
1&
b1 (
1!
#295001
0!
#300001
b1 1
b1 7
1/
03
b1 4
b1 6
b10 "
b10 .
b10 8
b10 )
b10 *
b1 ,
1!
#305001
0!
#310001
0-
b10 1
b10 7
b11 "
b11 .
b11 8
b11 )
b11 *
b10 ,
b10 6
1/
03
b1 4
b1 5
1!
#315001
0!
#320001
1#
b10 4
b11 6
b100 "
b100 .
b100 8
b100 )
b100 *
b11 ,
1!
#325001
0!
#330001
0#
0&
b10 (
b100 ,
b11 4
b100 6
1!
#335001
0!
#340001
1-
1+
1!
#345001
0!
#350001
b11 1
b11 7
b10 4
b10 5
1!
#355001
0!
#360001
b100 1
b100 7
10
b1 4
b11 5
1!
#365001
0!
#370001
0%
b0 1
b0 7
00
0/
13
b0 4
b100 5
1!
#375001
0!
#380001
b0 (
1!
#380002
0+
b0 "
b0 .
b0 8
b0 )
b0 *
b0 ,
b0 6
0/
13
b0 4
b0 5
0$
#385002
0!
#390002
1!
#395002
0!
#400002
1!
#405002
0!
#410002
1!
#415002
0!
#420002
1!
#425002
0!
#430002
1!
#435002
0!
#440002
1!
#445002
0!
#450002
1!
#455002
0!
#460002
1!
#465002
0!
#470002
1!
#475002
0!
#480002
1$
1!
#485002
0!
#490002
1!
#495002
0!
#500002
1%
1!
#505002
0!
#510002
b1 "
b1 .
b1 8
b1 )
b1 *
1&
b1 (
1!
#515002
0!
#520002
b1 1
b1 7
b10 "
b10 .
b10 8
b10 )
b10 *
b1 ,
1/
03
b1 4
b1 6
1!
#525002
0!
#530002
b10 1
b10 7
b1 5
b1 4
b10 6
b11 "
b11 .
b11 8
b11 )
b11 *
b10 ,
1!
#535002
0!
#540002
b11 1
b11 7
1#
b100 "
b100 .
b100 8
b100 )
b100 *
b11 ,
b11 6
1/
03
b1 4
b10 5
1!
#545002
0!
#550002
b100 1
b100 7
10
0#
b11 5
b1 4
b100 6
0&
b10 (
b100 ,
1!
#555002
0!
#560002
0%
b0 1
b0 7
00
1+
0/
13
b0 4
b100 5
1!
#565002
0!
#570002
b0 (
1!
#570003
0+
b0 "
b0 .
b0 8
b0 )
b0 *
b0 ,
b0 6
0/
13
b0 4
b0 5
0$
#575003
0!
#580003
1!
#585003
0!
#590003
1!
#595003
0!
#600003
1!
#605003
0!
#610003
1!
#615003
0!
#620003
1!
#625003
0!
#630003
1!
#635003
0!
#640003
1!
#645003
0!
#650003
1!
#655003
0!
#660003
1!
#665003
0!
#670003
1$
1!
#675003
0!
#680003
1%
1!
#685003
0!
#690003
b1 "
b1 .
b1 8
b1 )
b1 *
1&
b1 (
1!
#695003
0!
#700003
b1 1
b1 7
1/
03
b1 4
b1 6
b10 "
b10 .
b10 8
b10 )
b10 *
b1 ,
1!
#705003
0!
#710003
b10 1
b10 7
b11 "
b11 .
b11 8
b11 )
b11 *
b10 ,
b10 6
1/
03
b1 4
b1 5
1!
#715003
0!
#720003
b11 1
b11 7
1#
b10 5
b1 4
b11 6
b100 "
b100 .
b100 8
b100 )
b100 *
b11 ,
1!
#725003
0!
#730003
b100 1
b100 7
10
0#
0&
b10 (
b100 ,
b100 6
1/
03
b1 4
b11 5
1!
#735003
0!
#740003
0%
b0 1
b0 7
00
0/
13
b0 4
b100 5
1+
1!
#745003
0!
#750003
b0 (
1!
#755003
0!
#760003
0+
1!
#765003
0!
#770003
1!
#775003
0!
#780003
1%
1!
#785003
0!
#790003
b101 "
b101 .
b101 8
b101 )
b101 *
b0 ,
1&
b1 (
1!
#795003
0!
#800003
b101 1
b101 7
1/
03
b1 4
b101 6
b110 "
b110 .
b110 8
b110 )
b110 *
b1 ,
1!
#805003
0!
#810003
b110 1
b110 7
b111 "
b111 .
b111 8
b111 )
b111 *
b10 ,
b110 6
1/
03
b1 4
b101 5
1!
#815003
0!
#820003
b111 1
b111 7
1#
b110 5
b1 4
b111 6
b1000 "
b1000 .
b1000 8
b1000 )
b1000 *
b11 ,
1!
#825003
0!
#830003
b1000 1
b1000 7
10
0#
0&
b10 (
b100 ,
b1000 6
1/
03
b1 4
b111 5
1!
#835003
0!
#840003
0%
b0 1
b0 7
00
0/
13
b0 4
b1000 5
1+
1!
#845003
0!
#850003
b0 (
1!
#855003
0!
#860003
0+
1!
#865003
0!
#870003
1!
#875003
0!
#880003
1%
1!
#885003
0!
#890003
b1001 "
b1001 .
b1001 8
b1001 )
b1001 *
b0 ,
1&
b1 (
1!
#895003
0!
#900003
b1001 1
b1001 7
1/
03
b1 4
b1001 6
b1010 "
b1010 .
b1010 8
b1010 )
b1010 *
b1 ,
1!
#905003
0!
#910003
b1010 1
b1010 7
b1011 "
b1011 .
b1011 8
b1011 )
b1011 *
b10 ,
b1010 6
1/
03
b1 4
b1001 5
1!
#915003
0!
#920003
b1011 1
b1011 7
1#
b1010 5
b1 4
b1011 6
b1100 "
b1100 .
b1100 8
b1100 )
b1100 *
b11 ,
1!
#925003
0!
#930003
b1100 1
b1100 7
10
0#
0&
b10 (
b100 ,
b1100 6
1/
03
b1 4
b1011 5
1!
#935003
0!
#940003
0%
b0 1
b0 7
00
0/
13
b0 4
b1100 5
1+
1!
#945003
0!
#950003
b0 (
1!
#955003
0!
#960003
0+
1!
