05_AXI4_Lite_Write/tests/axi_waves.vcd
$date
	Thu Jun 26 13:48:13 2025
$end
$version
	Icarus Verilog
$end
$timescale
	1ps
$end
$scope module axi_lite_slave $end
$var wire 1 ! aclk $end
$var wire 32 " araddr [31:0] $end
$var wire 1 # aresetn $end
$var wire 1 $ arvalid $end
$var wire 32 % awaddr [31:0] $end
$var wire 1 & awvalid $end
$var wire 1 ' bready $end
$var wire 2 ( bresp [1:0] $end
$var wire 32 ) debug_reg0 [31:0] $end
$var wire 32 * debug_reg1 [31:0] $end
$var wire 32 + debug_reg2 [31:0] $end
$var wire 32 , debug_reg3 [31:0] $end
$var wire 32 - debug_reg4 [31:0] $end
$var wire 32 . debug_reg5 [31:0] $end
$var wire 32 / rdata [31:0] $end
$var wire 1 0 rready $end
$var wire 2 1 rresp [1:0] $end
$var wire 32 2 wdata [31:0] $end
$var wire 4 3 wstrb [3:0] $end
$var wire 1 4 wvalid $end
$var reg 1 5 arready $end
$var reg 1 6 awready $end
$var reg 2 7 bresp_reg [1:0] $end
$var reg 1 8 bvalid $end
$var reg 32 9 rdata_reg [31:0] $end
$var reg 2 : rresp_reg [1:0] $end
$var reg 1 ; rvalid $end
$var reg 1 < wready $end
$var reg 32 = write_addr_reg [31:0] $end
$var reg 2 > write_state [1:0] $end
$scope begin $ivl_for_loop0 $end
$var integer 32 ? i [31:0] $end
$upscope $end
$scope begin $ivl_for_loop1 $end
$var integer 32 @ i [31:0] $end
$upscope $end
$upscope $end
$enddefinitions $end
#0
$dumpvars
b0 @
b10000 ?
b0 >
b0 =
0<
0;
b0 :
b0 9
08
b0 7
16
15
04
b0 3
b0 2
b0 1
10
b0 /
b0 .
b0 -
b0 ,
b0 +
b0 *
b0 )
b0 (
1'
0&
b0 %
0$
0#
b0 "
1!
$end
#5000
0!
#10000
b10000 ?
1!
#15000
0!
#20000
b10000 ?
1!
#25000
0!
#30000
b10000 ?
1!
#35000
0!
#40000
b10000 ?
1!
#45000
0!
#50000
b10000 ?
1!
#55000
0!
#60000
b10000 ?
1!
#65000
0!
#70000
b10000 ?
1!
#75000
0!
#80000
b10000 ?
1!
#85000
0!
#90000
1#
b10000 ?
1!
#95000
0!
#100000
1&
b100 %
1!
#105000
0!
#110000
14
b1111 3
b11001010111111101011101010111110 2
0&
1<
06
b1 >
b100 =
1!
#115000
0!
#120000
04
18
0<
b10 >
b11001010111111101011101010111110 *
b100 @
1!
#125000
0!
#130000
1$
b100 "
b0 >
08
1!
#135000
0!
#140000
0$
16
1;
05
b11001010111111101011101010111110 /
b11001010111111101011101010111110 9
1!
#145000
0!
#150000
15
0;
1!
#150001
b0 *
b0 =
b0 /
b0 9
b10000 ?
b0 "
b0 3
b0 2
b0 %
0#
#155001
0!
#160001
b10000 ?
1!
#165001
0!
#170001
b10000 ?
1!
#175001
0!
#180001
b10000 ?
1!
#185001
0!
#190001
b10000 ?
1!
#195001
0!
#200001
b10000 ?
1!
#205001
0!
#210001
b10000 ?
1!
#215001
0!
#220001
b10000 ?
1!
#225001
0!
#230001
b10000 ?
1!
#235001
0!
#240001
b10000 ?
1!
#245001
0!
#250001
1#
b10000 ?
1!
#255001
0!
#260001
1&
1!
#265001
0!
#270001
14
b1111 3
b10001000100010001000100010001 2
0&
1<
06
b1 >
1!
#275001
0!
#280001
04
18
0<
b10 >
b10001000100010001000100010001 )
b100 @
1!
#285001
0!
#290001
1&
b100 %
b0 >
08
1!
#295001
0!
#300001
16
1!
#305001
0!
#310001
14
b100010001000100010001000100010 2
0&
1<
06
b1 >
b100 =
1!
#315001
0!
#320001
04
18
0<
b10 >
b100010001000100010001000100010 *
b100 @
1!
#325001
0!
#330001
1&
b1000 %
b0 >
08
1!
#335001
0!
#340001
16
1!
#345001
0!
#350001
14
b110011001100110011001100110011 2
0&
1<
06
b1 >
b1000 =
1!
#355001
0!
#360001
04
18
0<
b10 >
b110011001100110011001100110011 +
b100 @
1!
#365001
0!
#370001
1&
b1100 %
b0 >
08
1!
#375001
0!
#380001
16
1!
#385001
0!
#390001
14
b1000100010001000100010001000100 2
0&
1<
06
b1 >
b1100 =
1!
#395001
0!
#400001
04
18
0<
b10 >
b1000100010001000100010001000100 ,
b100 @
1!
#405001
0!
#410001
1$
b0 >
08
1!
#415001
0!
#420001
0$
16
1;
05
b10001000100010001000100010001 /
b10001000100010001000100010001 9
1!
#425001
0!
#430001
1$
b100 "
15
0;
1!
#435001
0!
#440001
0$
1;
05
b100010001000100010001000100010 /
b100010001000100010001000100010 9
1!
#445001
0!
#450001
1$
b1000 "
15
0;
1!
#455001
0!
#460001
0$
1;
05
b110011001100110011001100110011 /
b110011001100110011001100110011 9
1!
#465001
0!
#470001
1$
b1100 "
15
0;
1!
#475001
0!
#480001
0$
1;
05
b1000100010001000100010001000100 /
b1000100010001000100010001000100 9
1!
#485001
0!
#490001
15
0;
1!
#490002
b0 ,
b0 +
b0 *
b0 )
b0 =
b0 /
b0 9
b10000 ?
b0 "
b0 3
b0 2
b0 %
0#
#495002
0!
#500002
b10000 ?
1!
#505002
0!
#510002
b10000 ?
1!
#515002
0!
#520002
b10000 ?
1!
#525002
0!
#530002
b10000 ?
1!
#535002
0!
#540002
b10000 ?
1!
#545002
0!
#550002
b10000 ?
1!
#555002
0!
#560002
b10000 ?
1!
#565002
0!
#570002
b10000 ?
1!
#575002
0!
#580002
b10000 ?
1!
#585002
0!
#590002
1#
b10000 ?
1!
#595002
0!
#600002
1&
b10000 %
1!
#605002
0!
#610002
14
b1111 3
0&
1<
06
b1 >
b10000 =
1!
#615002
0!
#620002
04
18
0<
b10 >
b100 @
1!
#625002
0!
#630002
1&
b0 >
08
1!
#635002
0!
#640002
16
1!
#645002
0!
#650002
14
b1 3
b11011110101011011011111011101111 2
0&
1<
06
b1 >
1!
#655002
0!
#660002
04
18
0<
b10 >
b11101111 -
b100 @
1!
#665002
0!
#670002
1$
b10000 "
b0 >
08
1!
#675002
0!
#680002
0$
16
1;
05
b11101111 /
b11101111 9
1!
#685002
0!
#690002
1&
15
0;
1!
#695002
0!
#700002
14
b10 3
0&
1<
06
b1 >
1!
#705002
0!
#710002
04
18
0<
b10 >
b1011111011101111 -
b100 @
1!
#715002
0!
#720002
1$
b0 >
08
1!
#725002
0!
#730002
0$
16
1;
05
b1011111011101111 /
b1011111011101111 9
1!
#735002
0!
#740002
15
0;
1!
